<?xml version="1.0" encoding="UTF-8" standalone="no"?>
<!-- Created with Inkscape (http://www.inkscape.org/) -->

<svg
   width="24"
   height="24"
   viewBox="0 0 24 24"
   version="1.1"
   id="svg5"
   inkscape:version="1.2.2 (b0a8486541, 2022-12-01)"
   sodipodi:docname="ic_action_text_size_dec.svg"
   xmlns:inkscape="http://www.inkscape.org/namespaces/inkscape"
   xmlns:sodipodi="http://sodipodi.sourceforge.net/DTD/sodipodi-0.dtd"
   xmlns="http://www.w3.org/2000/svg"
   xmlns:svg="http://www.w3.org/2000/svg"
   xmlns:rdf="http://www.w3.org/1999/02/22-rdf-syntax-ns#"
   xmlns:cc="http://creativecommons.org/ns#">
  <sodipodi:namedview
     id="namedview7"
     pagecolor="#ffffff"
     bordercolor="#666666"
     borderopacity="1.0"
     inkscape:pageshadow="2"
     inkscape:pageopacity="0.0"
     inkscape:pagecheckerboard="true"
     inkscape:document-units="px"
     showgrid="false"
     units="px"
     width="24px"
     inkscape:zoom="23.451442"
     inkscape:cx="9.700896"
     inkscape:cy="13.133521"
     inkscape:window-width="1497"
     inkscape:window-height="1017"
     inkscape:window-x="1589"
     inkscape:window-y="102"
     inkscape:window-maximized="0"
     inkscape:current-layer="layer1"
     inkscape:showpageshadow="2"
     inkscape:deskcolor="#d1d1d1" />
  <defs
     id="defs2" />
  <g
     inkscape:label="Drawable"
     inkscape:groupmode="layer"
     id="layer1"
     style="display:inline"
     transform="translate(0.99999992)">
    <g
       aria-label="A"
       id="text4339-4"
       style="font-size:18.6667px;line-height:1.25;font-family:'Noto Sans';-inkscape-font-specification:'Noto Sans';display:inline;fill:#000000;fill-opacity:1"
       transform="matrix(0.78769565,0,0,0.78769565,-4.7076876,2.0248494)">
      <path
         d="m 19.941316,19.011341 -1.385053,-3.808605 -4.84705,5.5e-5 -1.385052,3.80855 H 9.7851089 L 14.863212,5.0465565 h 2.539052 L 22.480367,19.011341 Z M 16.132738,8.5377526 14.632159,12.663712 h 3.001159 z"
         id="path14668-8"
         sodipodi:nodetypes="ccccccccccccc"
         style="fill:#000000;fill-opacity:1" />
    </g>
    <path
       style="color:#000000;display:inline;fill:#000000;-inkscape-stroke:none;fill-opacity:1"
       d="m 13,11 v 2 h 6 v -2 z"
       id="path1247"
       sodipodi:nodetypes="ccccc" />
  </g>
  <metadata
     id="metadata824">
    <rdf:RDF>
      <cc:Work
         rdf:about="">
        <cc:license
           rdf:resource="http://creativecommons.org/publicdomain/zero/1.0/" />
      </cc:Work>
      <cc:License
         rdf:about="http://creativecommons.org/publicdomain/zero/1.0/">
        <cc:permits
           rdf:resource="http://creativecommons.org/ns#Reproduction" />
        <cc:permits
           rdf:resource="http://creativecommons.org/ns#Distribution" />
        <cc:permits
           rdf:resource="http://creativecommons.org/ns#DerivativeWorks" />
      </cc:License>
    </rdf:RDF>
  </metadata>
</svg>
