<?xml version="1.0" encoding="UTF-8" standalone="no"?>
<!-- Created with Inkscape (http://www.inkscape.org/) -->

<svg
   width="24"
   height="24"
   viewBox="0 0 24 24"
   version="1.1"
   id="svg5"
   inkscape:version="1.3 (0e150ed, 2023-07-21)"
   sodipodi:docname="ic_action_filter.svg"
   xml:space="preserve"
   xmlns:inkscape="http://www.inkscape.org/namespaces/inkscape"
   xmlns:sodipodi="http://sodipodi.sourceforge.net/DTD/sodipodi-0.dtd"
   xmlns="http://www.w3.org/2000/svg"
   xmlns:svg="http://www.w3.org/2000/svg"
   xmlns:rdf="http://www.w3.org/1999/02/22-rdf-syntax-ns#"
   xmlns:cc="http://creativecommons.org/ns#"><sodipodi:namedview
     id="namedview7"
     pagecolor="#ffffff"
     bordercolor="#666666"
     borderopacity="1.0"
     inkscape:pageshadow="2"
     inkscape:pageopacity="0.0"
     inkscape:pagecheckerboard="true"
     inkscape:document-units="px"
     showgrid="false"
     units="px"
     width="24px"
     inkscape:zoom="23.612484"
     inkscape:cx="13.065122"
     inkscape:cy="11.540505"
     inkscape:window-width="1488"
     inkscape:window-height="862"
     inkscape:window-x="436"
     inkscape:window-y="25"
     inkscape:window-maximized="0"
     inkscape:current-layer="layer1"
     inkscape:showpageshadow="2"
     inkscape:deskcolor="#d1d1d1" /><defs
     id="defs2" /><g
     inkscape:label="Drawable"
     inkscape:groupmode="layer"
     id="layer1"
     style="display:inline"><path
       id="rect1"
       style="fill:#000000;stroke-width:0.999996;stroke-linejoin:round;paint-order:markers fill stroke;stroke:none;fill-opacity:1"
       d="M 6 2 L 6 13.128906 C 4.2811777 13.576678 3 15.147532 3 17 C 3 18.852468 4.2811777 20.423322 6 20.871094 L 6 22 L 8 22 L 8 20.871094 C 9.7188223 20.423322 11 18.852468 11 17 C 11 15.147532 9.7188223 13.576678 8 13.128906 L 8 2 L 6 2 z M 7 15 C 8.1164119 15 9 15.883588 9 17 C 9 18.116412 8.1164119 19 7 19 C 5.8835881 19 5 18.116412 5 17 C 5 15.883588 5.8835881 15 7 15 z " /><path
       id="rect1-5"
       style="display:inline;fill:#000000;fill-opacity:1;stroke:none;stroke-width:0.999996;stroke-linejoin:round;paint-order:markers fill stroke"
       d="M 16,22 V 10.871094 C 14.281178,10.423322 13,8.852468 13,7 13,5.147532 14.281178,3.576678 16,3.128906 V 2 h 2 V 3.128906 C 19.718822,3.576678 21,5.147532 21,7 c 0,1.852468 -1.281178,3.423322 -3,3.871094 V 22 Z M 17,9 c 1.116412,0 2,-0.883588 2,-2 0,-1.116412 -0.883588,-2 -2,-2 -1.116412,0 -2,0.883588 -2,2 0,1.116412 0.883588,2 2,2 z" /></g><metadata
     id="metadata824"><rdf:RDF><cc:Work
         rdf:about=""><cc:license
           rdf:resource="http://creativecommons.org/publicdomain/zero/1.0/" /></cc:Work><cc:License
         rdf:about="http://creativecommons.org/publicdomain/zero/1.0/"><cc:permits
           rdf:resource="http://creativecommons.org/ns#Reproduction" /><cc:permits
           rdf:resource="http://creativecommons.org/ns#Distribution" /><cc:permits
           rdf:resource="http://creativecommons.org/ns#DerivativeWorks" /></cc:License></rdf:RDF></metadata></svg>
