<?xml version="1.0" encoding="UTF-8" standalone="no"?>
<!-- Created with Inkscape (http://www.inkscape.org/) -->

<svg
   width="24"
   height="24"
   viewBox="0 0 24 24"
   version="1.1"
   id="svg5"
   inkscape:version="1.2.2 (b0a8486541, 2022-12-01)"
   sodipodi:docname="ic_action_select_all.svg"
   xml:space="preserve"
   xmlns:inkscape="http://www.inkscape.org/namespaces/inkscape"
   xmlns:sodipodi="http://sodipodi.sourceforge.net/DTD/sodipodi-0.dtd"
   xmlns="http://www.w3.org/2000/svg"
   xmlns:svg="http://www.w3.org/2000/svg"
   xmlns:rdf="http://www.w3.org/1999/02/22-rdf-syntax-ns#"
   xmlns:cc="http://creativecommons.org/ns#"><sodipodi:namedview
     id="namedview7"
     pagecolor="#ffffff"
     bordercolor="#666666"
     borderopacity="1.0"
     inkscape:pageshadow="2"
     inkscape:pageopacity="0.0"
     inkscape:pagecheckerboard="true"
     inkscape:document-units="px"
     showgrid="false"
     units="px"
     width="24px"
     inkscape:zoom="14.860094"
     inkscape:cx="11.97839"
     inkscape:cy="14.131808"
     inkscape:window-width="1485"
     inkscape:window-height="1011"
     inkscape:window-x="1280"
     inkscape:window-y="0"
     inkscape:window-maximized="0"
     inkscape:current-layer="layer1"
     inkscape:showpageshadow="2"
     inkscape:deskcolor="#d1d1d1" /><defs
     id="defs2" /><g
     inkscape:label="Drawable"
     inkscape:groupmode="layer"
     id="layer1"
     style="display:inline"><path
       id="rect4651-61"
       style="display:inline;fill:#000000;fill-opacity:1;stroke:none;stroke-width:1;stroke-dasharray:none;paint-order:markers fill stroke"
       d="M 5,21 C 3.8920022,21 3,20.107998 3,19 h 2 z m 14,0 c 1.107998,0 2,-0.892002 2,-2 H 19 Z M 19,3 c 1.107998,0 2,0.8920022 2,2 H 19 Z M 5,3 C 3.8920022,3 3,3.8920022 3,5 H 5 Z M 7,7 V 17 H 17 V 7 Z m 2,2 h 6 v 6 H 9 Z M 19,7 h 2 v 2 h -2 z m 0,4 h 2 v 2 h -2 z m 0,4 h 2 v 2 h -2 z m -4,4 h 2 v 2 h -2 z m -4,0 h 2 v 2 h -2 z m -4,0 h 2 v 2 H 7 Z M 3,15 h 2 v 2 H 3 Z m 0,-4 h 2 v 2 H 3 Z M 3,7 H 5 V 9 H 3 Z M 15,3 h 2 v 2 h -2 z m -4,0 h 2 V 5 H 11 Z M 7,3 H 9 V 5 H 7 Z" /></g><metadata
     id="metadata824"><rdf:RDF><cc:Work
         rdf:about=""><cc:license
           rdf:resource="http://creativecommons.org/publicdomain/zero/1.0/" /></cc:Work><cc:License
         rdf:about="http://creativecommons.org/publicdomain/zero/1.0/"><cc:permits
           rdf:resource="http://creativecommons.org/ns#Reproduction" /><cc:permits
           rdf:resource="http://creativecommons.org/ns#Distribution" /><cc:permits
           rdf:resource="http://creativecommons.org/ns#DerivativeWorks" /></cc:License></rdf:RDF></metadata></svg>
