<?xml version="1.0" encoding="UTF-8" standalone="no"?>
<!-- Created with Inkscape (http://www.inkscape.org/) -->

<svg
   width="24"
   height="24"
   viewBox="0 0 24 24"
   version="1.1"
   id="svg5"
   inkscape:version="1.2.2 (b0a8486541, 2022-12-01)"
   sodipodi:docname="ic_overflow_icon.svg"
   xmlns:inkscape="http://www.inkscape.org/namespaces/inkscape"
   xmlns:sodipodi="http://sodipodi.sourceforge.net/DTD/sodipodi-0.dtd"
   xmlns="http://www.w3.org/2000/svg"
   xmlns:svg="http://www.w3.org/2000/svg"
   xmlns:rdf="http://www.w3.org/1999/02/22-rdf-syntax-ns#"
   xmlns:cc="http://creativecommons.org/ns#">
  <sodipodi:namedview
     id="namedview7"
     pagecolor="#ffffff"
     bordercolor="#666666"
     borderopacity="1.0"
     inkscape:pageshadow="2"
     inkscape:pageopacity="0.0"
     inkscape:pagecheckerboard="true"
     inkscape:document-units="px"
     showgrid="false"
     units="px"
     width="24px"
     inkscape:zoom="22.627417"
     inkscape:cx="12.683728"
     inkscape:cy="12.042912"
     inkscape:window-width="1576"
     inkscape:window-height="980"
     inkscape:window-x="1426"
     inkscape:window-y="0"
     inkscape:window-maximized="0"
     inkscape:current-layer="g583"
     inkscape:showpageshadow="2"
     inkscape:deskcolor="#d1d1d1" />
  <defs
     id="defs2" />
  <g
     inkscape:label="Drawable"
     inkscape:groupmode="layer"
     id="layer1"
     style="display:none"
     sodipodi:insensitive="true">
    <path
       id="rect971"
       style="vector-effect:non-scaling-stroke;fill:#ffffff;stroke-width:0.01;stroke-linecap:round;-inkscape-stroke:hairline;paint-order:markers fill stroke"
       d="m 11,11 h 2 v 2 h -2 z"
       sodipodi:nodetypes="ccccc" />
    <path
       id="rect971-3"
       style="display:inline;vector-effect:non-scaling-stroke;fill:#ffffff;stroke-width:0.01;stroke-linecap:round;-inkscape-stroke:hairline;paint-order:markers fill stroke"
       d="m 11,7 h 2 v 2 h -2 z"
       sodipodi:nodetypes="ccccc" />
    <path
       id="rect971-6"
       style="display:inline;vector-effect:non-scaling-stroke;fill:#ffffff;stroke-width:0.01;stroke-linecap:round;-inkscape-stroke:hairline;paint-order:markers fill stroke"
       d="m 11,15 h 2 v 2 h -2 z"
       sodipodi:nodetypes="ccccc" />
  </g>
  <g
     inkscape:label="Копия Drawable"
     inkscape:groupmode="layer"
     id="g583"
     style="display:inline">
    <circle
       style="fill:#000000;stroke-width:1;stroke-linejoin:bevel;paint-order:markers fill stroke;stroke:none;vector-effect:non-scaling-stroke;-inkscape-stroke:hairline;stroke-dasharray:none;fill-opacity:1"
       id="circle581"
       cx="12"
       cy="7"
       r="1.5" />
    <circle
       style="display:inline;fill:#000000;stroke-width:1;stroke-linejoin:bevel;paint-order:markers fill stroke;stroke:none;vector-effect:non-scaling-stroke;-inkscape-stroke:hairline;stroke-dasharray:none;fill-opacity:1"
       id="circle581-9"
       cx="12"
       cy="12"
       r="1.5" />
    <circle
       style="display:inline;fill:#000000;stroke-width:1;stroke-linejoin:bevel;paint-order:markers fill stroke;stroke:none;stroke-dasharray:none;vector-effect:non-scaling-stroke;-inkscape-stroke:hairline;fill-opacity:1"
       id="circle581-9-4"
       cx="12"
       cy="17"
       r="1.5" />
  </g>
  <metadata
     id="metadata824">
    <rdf:RDF>
      <cc:Work
         rdf:about="">
        <cc:license
           rdf:resource="http://creativecommons.org/publicdomain/zero/1.0/" />
      </cc:Work>
      <cc:License
         rdf:about="http://creativecommons.org/publicdomain/zero/1.0/">
        <cc:permits
           rdf:resource="http://creativecommons.org/ns#Reproduction" />
        <cc:permits
           rdf:resource="http://creativecommons.org/ns#Distribution" />
        <cc:permits
           rdf:resource="http://creativecommons.org/ns#DerivativeWorks" />
      </cc:License>
    </rdf:RDF>
  </metadata>
</svg>
