<?xml version="1.0" encoding="UTF-8" standalone="no"?>
<!-- Created with Inkscape (http://www.inkscape.org/) -->

<svg
   width="16"
   height="16"
   viewBox="0 0 16 16"
   version="1.1"
   id="svg5"
   inkscape:version="1.1.2 (0a00cf5339, 2022-02-04)"
   sodipodi:docname="template-icon-16x16.svg"
   xml:space="preserve"
   xmlns:inkscape="http://www.inkscape.org/namespaces/inkscape"
   xmlns:sodipodi="http://sodipodi.sourceforge.net/DTD/sodipodi-0.dtd"
   xmlns="http://www.w3.org/2000/svg"
   xmlns:svg="http://www.w3.org/2000/svg"
   xmlns:rdf="http://www.w3.org/1999/02/22-rdf-syntax-ns#"
   xmlns:cc="http://creativecommons.org/ns#"><sodipodi:namedview
     id="namedview7"
     pagecolor="#ffffff"
     bordercolor="#666666"
     borderopacity="1.0"
     inkscape:pageshadow="2"
     inkscape:pageopacity="0.0"
     inkscape:pagecheckerboard="true"
     inkscape:document-units="px"
     showgrid="false"
     units="px"
     width="16px"
     inkscape:zoom="29.720188"
     inkscape:cx="7.4864937"
     inkscape:cy="8.5295557"
     inkscape:window-width="1503"
     inkscape:window-height="903"
     inkscape:window-x="1324"
     inkscape:window-y="148"
     inkscape:window-maximized="0"
     inkscape:current-layer="layer1"
     inkscape:showpageshadow="2"
     inkscape:deskcolor="#d1d1d1" /><defs
     id="defs2" /><g
     inkscape:groupmode="layer"
     id="layer2"
     inkscape:label="guidelines"
     style="display:inline"
     sodipodi:insensitive="true"><g
       id="g4481"><path
         id="rect6283"
         style="vector-effect:non-scaling-stroke;fill:#e5e5e5;stroke-width:0.000666667;stroke-linecap:round;stroke-opacity:0.5;-inkscape-stroke:hairline"
         d="M 0,0 H 16 V 16 H 0 Z"
         sodipodi:nodetypes="ccccc" /><path
         style="vector-effect:non-scaling-stroke;fill:none;stroke:#000000;stroke-width:1e-05;stroke-linecap:butt;stroke-linejoin:miter;stroke-miterlimit:4;stroke-dasharray:none;stroke-opacity:0.5;-inkscape-stroke:hairline"
         d="M 0,1 H 16"
         id="path3128"
         sodipodi:nodetypes="cc" /><path
         style="display:inline;vector-effect:non-scaling-stroke;fill:none;stroke:#000000;stroke-width:0.001;stroke-linecap:butt;stroke-linejoin:miter;stroke-miterlimit:4;stroke-dasharray:none;stroke-opacity:0.5;-inkscape-stroke:hairline"
         d="M 0,2 H 16"
         id="path3128-1"
         sodipodi:nodetypes="cc" /><path
         style="display:inline;vector-effect:non-scaling-stroke;fill:none;stroke:#000000;stroke-width:0.001;stroke-linecap:butt;stroke-linejoin:miter;stroke-miterlimit:4;stroke-dasharray:none;stroke-opacity:0.5;-inkscape-stroke:hairline"
         d="M 0,3.0000002 16,3"
         id="path3128-2"
         sodipodi:nodetypes="cc" /><path
         style="display:inline;vector-effect:non-scaling-stroke;fill:none;stroke:#000000;stroke-width:0.001;stroke-linecap:butt;stroke-linejoin:miter;stroke-miterlimit:4;stroke-dasharray:none;stroke-opacity:0.5;-inkscape-stroke:hairline"
         d="M 0,4.0000005 16,4"
         id="path3128-9"
         sodipodi:nodetypes="cc" /><path
         style="display:inline;vector-effect:non-scaling-stroke;fill:none;stroke:#000000;stroke-width:0.001;stroke-linecap:butt;stroke-linejoin:miter;stroke-miterlimit:4;stroke-dasharray:none;stroke-opacity:0.5;-inkscape-stroke:hairline"
         d="M 0,5.0000005 16,5"
         id="path3128-3"
         sodipodi:nodetypes="cc" /><path
         style="display:inline;vector-effect:non-scaling-stroke;fill:none;stroke:#000000;stroke-width:0.001;stroke-linecap:butt;stroke-linejoin:miter;stroke-miterlimit:4;stroke-dasharray:none;stroke-opacity:0.5;-inkscape-stroke:hairline"
         d="M 0,6.0000005 16,6"
         id="path3128-19"
         sodipodi:nodetypes="cc" /><path
         style="display:inline;vector-effect:non-scaling-stroke;fill:none;stroke:#000000;stroke-width:0.001;stroke-linecap:butt;stroke-linejoin:miter;stroke-miterlimit:4;stroke-dasharray:none;stroke-opacity:0.5;-inkscape-stroke:hairline"
         d="M 0,7.0000009 16,7"
         id="path3128-4"
         sodipodi:nodetypes="cc" /><path
         style="display:inline;vector-effect:non-scaling-stroke;fill:none;stroke:#000000;stroke-width:0.001;stroke-linecap:butt;stroke-linejoin:miter;stroke-miterlimit:4;stroke-dasharray:none;stroke-opacity:0.5;-inkscape-stroke:hairline"
         d="M 0,8.000001 16,8"
         id="path3128-7"
         sodipodi:nodetypes="cc" /><path
         style="display:inline;vector-effect:non-scaling-stroke;fill:none;stroke:#000000;stroke-width:1e-05;stroke-linecap:butt;stroke-linejoin:miter;stroke-miterlimit:4;stroke-dasharray:none;stroke-opacity:0.5;-inkscape-stroke:hairline"
         d="M 0,9.0000009 16,9"
         id="path3128-8"
         sodipodi:nodetypes="cc" /><path
         style="display:inline;vector-effect:non-scaling-stroke;fill:none;stroke:#000000;stroke-width:0.001;stroke-linecap:butt;stroke-linejoin:miter;stroke-miterlimit:4;stroke-dasharray:none;stroke-opacity:0.5;-inkscape-stroke:hairline"
         d="M 0,10.000001 16,10"
         id="path3128-45"
         sodipodi:nodetypes="cc" /><path
         style="display:inline;vector-effect:non-scaling-stroke;fill:none;stroke:#000000;stroke-width:0.001;stroke-linecap:butt;stroke-linejoin:miter;stroke-miterlimit:4;stroke-dasharray:none;stroke-opacity:0.5;-inkscape-stroke:hairline"
         d="M 0,11.000001 16,11"
         id="path3128-0"
         sodipodi:nodetypes="cc" /><path
         style="display:inline;vector-effect:non-scaling-stroke;fill:none;stroke:#000000;stroke-width:0.001;stroke-linecap:butt;stroke-linejoin:miter;stroke-miterlimit:4;stroke-dasharray:none;stroke-opacity:0.5;-inkscape-stroke:hairline"
         d="M 0,12.000001 16,12"
         id="path3128-36"
         sodipodi:nodetypes="cc" /><path
         style="display:inline;vector-effect:non-scaling-stroke;fill:none;stroke:#000000;stroke-width:0.001;stroke-linecap:butt;stroke-linejoin:miter;stroke-miterlimit:4;stroke-dasharray:none;stroke-opacity:0.5;-inkscape-stroke:hairline"
         d="M 0,13.000002 16,13"
         id="path3128-10"
         sodipodi:nodetypes="cc" /><path
         style="display:inline;vector-effect:non-scaling-stroke;fill:none;stroke:#000000;stroke-width:0.001;stroke-linecap:butt;stroke-linejoin:miter;stroke-miterlimit:4;stroke-dasharray:none;stroke-opacity:0.5;-inkscape-stroke:hairline"
         d="M 0,14.000002 16,14"
         id="path3128-6"
         sodipodi:nodetypes="cc" /><path
         style="display:inline;vector-effect:non-scaling-stroke;fill:none;stroke:#000000;stroke-width:0.001;stroke-linecap:butt;stroke-linejoin:miter;stroke-miterlimit:4;stroke-dasharray:none;stroke-opacity:0.5;-inkscape-stroke:hairline"
         d="M 0,15.000002 16,15"
         id="path3128-32"
         sodipodi:nodetypes="cc" /><path
         style="display:inline;vector-effect:non-scaling-stroke;fill:none;stroke:#000000;stroke-width:0.001;stroke-linecap:butt;stroke-linejoin:miter;stroke-miterlimit:4;stroke-dasharray:none;stroke-opacity:0.5;-inkscape-stroke:hairline"
         d="M 15.000001,0 V 16"
         id="path3128-8-8"
         sodipodi:nodetypes="cc" /><path
         style="display:inline;vector-effect:non-scaling-stroke;fill:none;stroke:#000000;stroke-width:0.001;stroke-linecap:butt;stroke-linejoin:miter;stroke-miterlimit:4;stroke-dasharray:none;stroke-opacity:0.5;-inkscape-stroke:hairline"
         d="M 14.000001,0 V 16"
         id="path3128-45-4"
         sodipodi:nodetypes="cc" /><path
         style="display:inline;vector-effect:non-scaling-stroke;fill:none;stroke:#000000;stroke-width:0.001;stroke-linecap:butt;stroke-linejoin:miter;stroke-miterlimit:4;stroke-dasharray:none;stroke-opacity:0.5;-inkscape-stroke:hairline"
         d="M 13.000001,0 V 16"
         id="path3128-0-3"
         sodipodi:nodetypes="cc" /><path
         style="display:inline;vector-effect:non-scaling-stroke;fill:none;stroke:#000000;stroke-width:0.001;stroke-linecap:butt;stroke-linejoin:miter;stroke-miterlimit:4;stroke-dasharray:none;stroke-opacity:0.5;-inkscape-stroke:hairline"
         d="M 12.000001,0 V 16"
         id="path3128-36-1"
         sodipodi:nodetypes="cc" /><path
         style="display:inline;vector-effect:non-scaling-stroke;fill:none;stroke:#000000;stroke-width:0.001;stroke-linecap:butt;stroke-linejoin:miter;stroke-miterlimit:4;stroke-dasharray:none;stroke-opacity:0.5;-inkscape-stroke:hairline"
         d="M 11,0 V 16"
         id="path3128-10-4"
         sodipodi:nodetypes="cc" /><path
         style="display:inline;vector-effect:non-scaling-stroke;fill:none;stroke:#000000;stroke-width:0.001;stroke-linecap:butt;stroke-linejoin:miter;stroke-miterlimit:4;stroke-dasharray:none;stroke-opacity:0.5;-inkscape-stroke:hairline"
         d="M 10,0 V 16"
         id="path3128-6-9"
         sodipodi:nodetypes="cc" /><path
         style="display:inline;vector-effect:non-scaling-stroke;fill:none;stroke:#000000;stroke-width:0.001;stroke-linecap:butt;stroke-linejoin:miter;stroke-miterlimit:4;stroke-dasharray:none;stroke-opacity:0.5;-inkscape-stroke:hairline"
         d="M 9,0 V 16"
         id="path3128-32-2"
         sodipodi:nodetypes="cc" /><path
         style="display:inline;vector-effect:non-scaling-stroke;fill:none;stroke:#000000;stroke-width:0.001;stroke-linecap:butt;stroke-linejoin:miter;stroke-miterlimit:4;stroke-dasharray:none;stroke-opacity:0.5;-inkscape-stroke:hairline"
         d="M 8.000001,0 V 16"
         id="path3128-06-0"
         sodipodi:nodetypes="cc" /><path
         style="display:inline;vector-effect:non-scaling-stroke;fill:none;stroke:#000000;stroke-width:0.001;stroke-linecap:butt;stroke-linejoin:miter;stroke-miterlimit:4;stroke-dasharray:none;stroke-opacity:0.5;-inkscape-stroke:hairline"
         d="M 7,0 V 16"
         id="path3128-15-6"
         sodipodi:nodetypes="cc" /><path
         style="display:inline;vector-effect:non-scaling-stroke;fill:none;stroke:#000000;stroke-width:0.001;stroke-linecap:butt;stroke-linejoin:miter;stroke-miterlimit:4;stroke-dasharray:none;stroke-opacity:0.5;-inkscape-stroke:hairline"
         d="M 6.000001,0 V 16"
         id="path3128-5-8"
         sodipodi:nodetypes="cc" /><path
         style="display:inline;vector-effect:non-scaling-stroke;fill:none;stroke:#000000;stroke-width:0.001;stroke-linecap:butt;stroke-linejoin:miter;stroke-miterlimit:4;stroke-dasharray:none;stroke-opacity:0.5;-inkscape-stroke:hairline"
         d="M 4.999999,0 V 16"
         id="path3128-47-9"
         sodipodi:nodetypes="cc" /><path
         style="display:inline;vector-effect:non-scaling-stroke;fill:none;stroke:#000000;stroke-width:0.001;stroke-linecap:butt;stroke-linejoin:miter;stroke-miterlimit:4;stroke-dasharray:none;stroke-opacity:0.5;-inkscape-stroke:hairline"
         d="M 4.000001,0 V 16"
         id="path3128-65-2"
         sodipodi:nodetypes="cc" /><path
         style="display:inline;vector-effect:non-scaling-stroke;fill:none;stroke:#000000;stroke-width:0.001;stroke-linecap:butt;stroke-linejoin:miter;stroke-miterlimit:4;stroke-dasharray:none;stroke-opacity:0.5;-inkscape-stroke:hairline"
         d="M 3.000001,0 V 16"
         id="path3128-69-6"
         sodipodi:nodetypes="cc" /><path
         style="display:inline;vector-effect:non-scaling-stroke;fill:none;stroke:#000000;stroke-width:0.001;stroke-linecap:butt;stroke-linejoin:miter;stroke-miterlimit:4;stroke-dasharray:none;stroke-opacity:0.5;-inkscape-stroke:hairline"
         d="M 1,0 V 16"
         id="path3128-37-6"
         sodipodi:nodetypes="cc" /><path
         style="display:inline;vector-effect:non-scaling-stroke;fill:none;stroke:#000000;stroke-width:0.001;stroke-linecap:butt;stroke-linejoin:miter;stroke-miterlimit:4;stroke-dasharray:none;stroke-opacity:0.5;-inkscape-stroke:hairline"
         d="M 2,0 V 16"
         id="path3128-37-5-4"
         sodipodi:nodetypes="cc" /></g></g><g
     inkscape:label="Drawable"
     inkscape:groupmode="layer"
     id="layer1"
     style="display:inline" /><metadata
     id="metadata824"><rdf:RDF><cc:Work
         rdf:about=""><cc:license
           rdf:resource="http://creativecommons.org/publicdomain/zero/1.0/" /></cc:Work><cc:License
         rdf:about="http://creativecommons.org/publicdomain/zero/1.0/"><cc:permits
           rdf:resource="http://creativecommons.org/ns#Reproduction" /><cc:permits
           rdf:resource="http://creativecommons.org/ns#Distribution" /><cc:permits
           rdf:resource="http://creativecommons.org/ns#DerivativeWorks" /></cc:License></rdf:RDF></metadata></svg>
